Name               Stmts   Miss Branch BrPart  Cover   Missing
--------------------------------------------------------------
Diplomacy.py         105      5     64      6    93%   53->54, 54, 58->exit, 80->81, 81-82, 83->84, 84-85, 86->exit, 105->95
TestDiplomacy.py      63      0      2      1    98%   105->exit
--------------------------------------------------------------
TOTAL                168      5     66      7    95%

