................
----------------------------------------------------------------------
Ran 16 tests in 0.005s

OK
Name               Stmts   Miss Branch BrPart  Cover   Missing
--------------------------------------------------------------
Diplomacy.py          66      1     48      2    97%   48->51, 51, 52->54
TestDiplomacy.py      76      0      0      0   100%
--------------------------------------------------------------
TOTAL                142      1     48      2    98%
